project1/TestBench.vcd
$date
	Mon Dec  8 13:47:05 2014
$end
$version
	Icarus Verilog
$end
$timescale
	1s
$end
$scope module TestBench $end
$var reg 1 ! Clk $end
$var reg 1 " Start $end
$var integer 32 # counter [31:0] $end
$var integer 32 $ flush [31:0] $end
$var integer 32 % i [31:0] $end
$var integer 32 & outfile [31:0] $end
$var integer 32 ' stall [31:0] $end
$scope module CPU $end
$var wire 1 ( clk_i $end
$var wire 32 ) instruction [31:0] $end
$var wire 1 * start_i $end
$scope module Add_PC $end
$var wire 32 + data1_i [31:0] $end
$var wire 32 , data2_i [31:0] $end
$var wire 32 - data_o [31:0] $end
$upscope $end
$scope module PC $end
$var wire 1 ( clk_i $end
$var wire 32 . pc_i [31:0] $end
$var wire 1 / stall_i $end
$var wire 1 * start_i $end
$var reg 32 0 pc_o [31:0] $end
$upscope $end
$scope module Instruction_Memory $end
$var wire 32 1 addr_i [31:0] $end
$var wire 32 2 instr_o [31:0] $end
$upscope $end
$scope module Brench_AND $end
$var wire 1 3 data1_i $end
$var wire 1 4 data2_i $end
$var wire 1 5 data_o $end
$upscope $end
$scope module Brench_MUX $end
$var wire 32 6 data1_i [31:0] $end
$var wire 32 7 data2_i [31:0] $end
$var wire 1 5 select_i $end
$var reg 32 8 data_o [31:0] $end
$upscope $end
$scope module Jump_MUX $end
$var wire 32 9 data1_i [31:0] $end
$var wire 32 : data2_i [31:0] $end
$var wire 1 ; select_i $end
$var reg 32 < data_o [31:0] $end
$upscope $end
$scope module IF_ID $end
$var wire 1 = Hazard_stall_i $end
$var wire 32 > addedPC_i [31:0] $end
$var wire 1 5 brench_i $end
$var wire 1 ( clk_i $end
$var wire 32 ? inst_i [31:0] $end
$var wire 1 ; jump_i $end
$var reg 32 @ addedPC [31:0] $end
$var reg 32 A addedPC_o [31:0] $end
$var reg 32 B inst [31:0] $end
$var reg 32 C inst_o [31:0] $end
$upscope $end
$scope module JumpAddr $end
$var wire 26 D inst_i [25:0] $end
$var wire 4 E jumpPC_i [3:0] $end
$var reg 32 F jumpAddr_o [31:0] $end
$upscope $end
$scope module HD $end
$var wire 1 G IDEX_MemRead_i $end
$var wire 5 H IDEX_RtAddr_i [4:0] $end
$var wire 5 I IFID_RsAddr_i [4:0] $end
$var wire 5 J IFID_RtAddr_i [4:0] $end
$var wire 6 K Op_i [5:0] $end
$var reg 1 L IDEX_stall_o $end
$var reg 1 M IFID_stall_o $end
$var reg 1 N PC_stall_o $end
$upscope $end
$scope module Flush_MUX $end
$var wire 4 O EX_i [3:0] $end
$var wire 2 P MEM_i [1:0] $end
$var wire 2 Q WB_i [1:0] $end
$var wire 1 R flush_i $end
$var reg 3 S EX_o [2:0] $end
$var reg 2 T MEM_o [1:0] $end
$var reg 2 U WB_o [1:0] $end
$upscope $end
$scope module Control $end
$var wire 6 V Op_i [5:0] $end
$var reg 3 W ALUOp [2:0] $end
$var reg 1 X ALUSrc $end
$var reg 4 Y EX_o [3:0] $end
$var reg 1 Z FlushMUX_o $end
$var reg 2 [ MEM_o [1:0] $end
$var reg 1 \ MemRead $end
$var reg 1 ] MemWrite $end
$var reg 1 ^ MemtoReg $end
$var reg 1 _ RegDst $end
$var reg 1 ` RegWrite $end
$var reg 2 a WB_o [1:0] $end
$var reg 1 b brenchCtrl_o $end
$var reg 1 c jumpCtrl_o $end
$upscope $end
$scope module Add_Jump $end
$var wire 32 d data1_i [31:0] $end
$var wire 32 e data2_i [31:0] $end
$var wire 32 f data_o [31:0] $end
$upscope $end
$scope module brenchx4 $end
$var wire 32 g data_i [31:0] $end
$var reg 32 h data_o [31:0] $end
$upscope $end
$scope module Signed_Extend $end
$var wire 16 i data_i [15:0] $end
$var wire 32 j data_o [31:0] $end
$upscope $end
$scope module Registers $end
$var wire 5 k RDaddr_i [4:0] $end
$var wire 32 l RDdata_i [31:0] $end
$var wire 5 m RSaddr_i [4:0] $end
$var wire 32 n RSdata_o [31:0] $end
$var wire 5 o RTaddr_i [4:0] $end
$var wire 32 p RTdata_o [31:0] $end
$var wire 1 q RegWrite_i $end
$var wire 1 ( clk_i $end
$upscope $end
$scope module Equal $end
$var wire 32 r data1_i [31:0] $end
$var wire 32 s data2_i [31:0] $end
$var reg 1 t data_o $end
$upscope $end
$scope module ID_EX $end
$var wire 3 u EX_i [2:0] $end
$var wire 2 v MEM_i [1:0] $end
$var wire 5 w RdAddr_WB_i [4:0] $end
$var wire 32 x Reg_data1_i [31:0] $end
$var wire 32 y Reg_data2_i [31:0] $end
$var wire 5 z RsAddr_FW_i [4:0] $end
$var wire 5 { RtAddr_FW_i [4:0] $end
$var wire 5 | RtAddr_WB_i [4:0] $end
$var wire 2 } WB_i [1:0] $end
$var wire 1 ( clk_i $end
$var wire 32 ~ immd_i [31:0] $end
$var reg 2 !" ALU_OP_o [1:0] $end
$var reg 1 "" ALU_Src_o $end
$var reg 4 #" EX [3:0] $end
$var reg 2 $" MEM [1:0] $end
$var reg 2 %" MEM_o [1:0] $end
$var reg 5 &" RdAddr_WB [4:0] $end
$var reg 5 '" RdAddr_WB_o [4:0] $end
$var reg 1 (" Reg_Dst_o $end
$var reg 32 )" Reg_data1 [31:0] $end
$var reg 32 *" Reg_data1_o [31:0] $end
$var reg 32 +" Reg_data2 [31:0] $end
$var reg 32 ," Reg_data2_o [31:0] $end
$var reg 5 -" RsAddr_FW [4:0] $end
$var reg 5 ." RsAddr_FW_o [4:0] $end
$var reg 5 /" RtAddr_FW [4:0] $end
$var reg 5 0" RtAddr_FW_o [4:0] $end
$var reg 5 1" RtAddr_WB [4:0] $end
$var reg 5 2" RtAddr_WB_o [4:0] $end
$var reg 2 3" WB [1:0] $end
$var reg 2 4" WB_o [1:0] $end
$var reg 32 5" immd [31:0] $end
$var reg 32 6" immd_o [31:0] $end
$upscope $end
$scope module MUX6 $end
$var wire 32 7" data0_i [31:0] $end
$var wire 32 8" data1_i [31:0] $end
$var wire 32 9" data2_i [31:0] $end
$var wire 2 :" select_i [1:0] $end
$var reg 32 ;" data_o [31:0] $end
$upscope $end
$scope module MUX7 $end
$var wire 32 <" data0_i [31:0] $end
$var wire 32 =" data1_i [31:0] $end
$var wire 32 >" data2_i [31:0] $end
$var wire 2 ?" select_i [1:0] $end
$var reg 32 @" data_o [31:0] $end
$upscope $end
$scope module MUX_ALUSrc $end
$var wire 32 A" data1_i [31:0] $end
$var wire 32 B" data2_i [31:0] $end
$var wire 1 C" select_i $end
$var reg 32 D" data_o [31:0] $end
$upscope $end
$scope module MUX_RegDst $end
$var wire 5 E" data1_i [4:0] $end
$var wire 5 F" data2_i [4:0] $end
$var wire 1 G" select_i $end
$var reg 5 H" data_o [4:0] $end
$upscope $end
$scope module ALU $end
$var wire 3 I" ALUCtrl_i [2:0] $end
$var wire 1 J" Zero_o $end
$var wire 32 K" data1_i [31:0] $end
$var wire 32 L" data2_i [31:0] $end
$var reg 32 M" data_o [31:0] $end
$upscope $end
$scope module ALU_Control $end
$var wire 2 N" ALUOp_i [1:0] $end
$var wire 6 O" funct_i [5:0] $end
$var reg 3 P" ALUCtrl_o [2:0] $end
$upscope $end
$scope module Forward_Unit $end
$var wire 1 Q" EXMEM_WB_i $end
$var wire 5 R" EXMEM_WriteAddr_i [4:0] $end
$var wire 5 S" IDEX_RsAddr_i [4:0] $end
$var wire 5 T" IDEX_RtAddr_i [4:0] $end
$var wire 1 q MEMWB_WB_i $end
$var wire 5 U" MEMWB_WriteAddr_i [4:0] $end
$var reg 2 V" mux6_o [1:0] $end
$var reg 2 W" mux7_o [1:0] $end
$upscope $end
$scope module EX_MEM $end
$var wire 32 X" ALUout_i [31:0] $end
$var wire 2 Y" MEM_i [1:0] $end
$var wire 32 Z" MemWriteData_i [31:0] $end
$var wire 5 [" RegWriteAddr_i [4:0] $end
$var wire 2 \" WB_i [1:0] $end
$var wire 1 ( clk_i $end
$var reg 32 ]" ALUout [31:0] $end
$var reg 32 ^" ALUout_o [31:0] $end
$var reg 2 _" MEM [1:0] $end
$var reg 1 `" MemRead_o $end
$var reg 32 a" MemWriteData [31:0] $end
$var reg 32 b" MemWriteData_o [31:0] $end
$var reg 1 c" MemWrite_o $end
$var reg 5 d" RegWriteAddr [4:0] $end
$var reg 5 e" RegWriteAddr_o [4:0] $end
$var reg 2 f" WB [1:0] $end
$var reg 2 g" WB_o [1:0] $end
$upscope $end
$scope module Data_Memory $end
$var wire 1 h" MemRead_i $end
$var wire 1 i" MemWrite_i $end
$var wire 32 j" addr_i [31:0] $end
$var wire 1 ( clk_i $end
$var wire 32 k" write_data_i [31:0] $end
$var reg 32 l" data_o [31:0] $end
$upscope $end
$scope module MEM_WB $end
$var wire 32 m" ALU_data_i [31:0] $end
$var wire 32 n" MEM_data_i [31:0] $end
$var wire 5 o" RegWriteAddr_i [4:0] $end
$var wire 2 p" WB_i [1:0] $end
$var wire 1 ( clk_i $end
$var reg 32 q" ALU_data [31:0] $end
$var reg 32 r" ALU_data_o [31:0] $end
$var reg 32 s" MEM_data [31:0] $end
$var reg 1 t" MemToReg_o $end
$var reg 32 u" Mem_data_o [31:0] $end
$var reg 6 v" RegWriteAddr [5:0] $end
$var reg 5 w" RegWriteAddr_o [4:0] $end
$var reg 1 x" RegWrite_o $end
$var reg 2 y" WB [1:0] $end
$upscope $end
$scope module DataToReg $end
$var wire 32 z" data1_i [31:0] $end
$var wire 32 {" data2_i [31:0] $end
$var wire 1 |" select_i $end
$var reg 32 }" data_o [31:0] $end
$upscope $end
$upscope $end
$upscope $end
$enddefinitions $end
#0
$dumpvars
bx }"
x|"
bx {"
bx z"
bx y"
xx"
bx w"
b0xxxxx v"
bx u"
xt"
bx s"
bx r"
bx q"
bx p"
bx o"
bx n"
bx m"
bx l"
bx k"
bx j"
xi"
xh"
bx g"
bx f"
bx e"
bx d"
xc"
bx b"
bx a"
x`"
bx _"
bx ^"
bx ]"
bx \"
bx ["
b0 Z"
bx Y"
bx X"
b0 W"
b0 V"
bx U"
bx T"
bx S"
bx R"
xQ"
b10 P"
b100000 O"
bx N"
bx M"
bx L"
b0 K"
zJ"
b10 I"
bx H"
xG"
bx F"
bx E"
bx D"
xC"
bx B"
b0 A"
b0 @"
b0 ?"
bx >"
bx ="
b0 <"
b0 ;"
b0 :"
bx 9"
bx 8"
b0 7"
bx 6"
b0xxxxxxxxxxxxxxxx 5"
bx 4"
bx 3"
bx 2"
bx 1"
bx 0"
bx /"
bx ."
bx -"
bx ,"
bx +"
bx *"
bx )"
x("
bx '"
bx &"
bx %"
bx $"
b0xxx #"
x""
bx !"
b100000000100000 ~
bx }
b0 |
b0 {
b0 z
b0 y
b0 x
b1000 w
bx v
bx u
1t
b0 s
b0 r
xq
b0 p
b0 o
b0 n
b0 m
bx l
bx k
b100000000100000 j
b100000000100000 i
b10000000010000000 h
b100000000100000 g
bx f
bx e
b10000000010000000 d
0c
0b
bx a
1`
1_
0^
0]
0\
bx [
xZ
bx Y
0X
b10 W
b0 V
bx U
bx T
bx S
1R
bx Q
bx P
bx O
0N
0M
1L
b0 K
b0 J
b0 I
bx H
xG
b0 F
b0 E
b100000000100000 D
bx C
bx B
bx A
bx @
b100000000100000 ?
b100 >
0=
b100 <
0;
b100 :
b0 9
b100 8
b100 7
bx 6
05
04
13
b100000000100000 2
b0 1
b0 0
0/
b100 .
b100 -
b100 ,
b0 +
0*
b100000000100000 )
1(
b0 '
b11 &
b100000 %
b0 $
b0 #
0"
1!
$end
#12
1"
1*
#25
b0xxxxxxxxxxxxxxxx D"
b0xxxxxxxxxxxxxxxx L"
b0 C
b0 A
b0 e
b10000000010000000 6
b10000000010000000 f
b0xxxxxxxxxxxxxxxx 6"
b0xxxxxxxxxxxxxxxx B"
0""
0C"
0!
0(
#50
b1000 <
b1000 .
b0 T
b0 v
b101 S
b101 u
b10 U
b10 }
0_
b0 W
1X
b1000 8
b1000 :
b0 a"
b1000 &"
b0 1"
b0 /"
b0 -"
b100000000100000 5"
b0 +"
b0 )"
b100000000100000 B
b1000 @
b1 N"
b101000 h
b101000 6
b101000 f
b101000 d
b10 a
b10 Q
b0 [
b0 P
b101 Y
b101 O
b10000000000000000000000000000000 F
b10000000000000000000000000000000 9
b1010 O"
b0 w
b1001 |
b1001 {
b1001 o
b1010 i
b1010 g
b1010 j
b1010 ~
b1000 V
b1001 J
b1000 K
b10010000000000001010 D
b100000000010010000000000001010 )
b100000000010010000000000001010 2
b100000000010010000000000001010 ?
b1 #
b1 '
b100 0
b1000 -
b1000 7
b1000 >
b100 +
b100 1
1!
1(
#75
b100000000100000 M"
b100000000100000 X"
b1000 H"
b1000 ["
b100000000100000 D"
b100000000100000 L"
b0 b"
b0 k"
b1000 '"
b1000 F"
b0 2"
b0 H
b0 E"
b0 0"
b0 T"
b0 ."
b0 S"
b100000000100000 6"
b100000000100000 B"
b0 ,"
b0 *"
0!
0(
#100
b1100 <
b1100 .
b0 S
b0 u
0`
1]
b1100 8
b1100 :
b100000000010010000000000001010 B
b0 $"
b10 3"
b101 #"
b0 &"
b1001 1"
b1001 /"
b1010 5"
b1000 d"
b100000000100000 ]"
b0 N"
b0 h
b0 6
b0 f
b0 d
b1000 Y
b1000 O
b0 F
b0 9
b0 O"
b0 |
b0 {
b1000 z
b0 o
b1000 m
b0 i
b0 g
b0 j
b0 ~
b101011 V
b0 J
b1000 I
b101011 K
b1000000000000000000000000 D
b10101101000000000000000000000000 )
b10101101000000000000000000000000 2
b10101101000000000000000000000000 ?
b1000 0
b1100 -
b1100 7
b1100 >
b1000 +
b1000 1
b10 #
b10 '
1!
1(
#125
b1010 M"
b1010 X"
b1010 D"
b1010 L"
b1001 H"
b1001 ["
0G
b0 %"
b0 Y"
b10 4"
b10 \"
b0 '"
b0 F"
b1001 2"
b1001 H
b1001 E"
b1001 0"
b1001 T"
b1010 6"
b1010 B"
1("
1G"
b10 !"
b1000 e"
b1000 R"
b1000 o"
b100000000100000 ^"
b100000000100000 9"
b100000000100000 >"
b100000000100000 j"
b100000000100000 m"
0!
0(
#150
b10000 <
b10000 .
b10000 8
b10000 :
b0 _"
b10 f"
b1001 d"
b1010 ]"
b0 #"
b0 1"
b0 /"
b1000 -"
b0 5"
b10101101000000000000000000000000 B
b10000 @
b10000 h
b10000 6
b10000 f
b10000 d
b100 O"
b1001 |
b1001 {
b1001 o
b100 i
b100 g
b100 j
b100 ~
b1001 J
b1000010010000000000000100 D
b10101101000010010000000000000100 )
b10101101000010010000000000000100 2
b10101101000010010000000000000100 ?
b11 #
b11 '
b1000 v"
b100000000100000 q"
b1100 0
b10000 -
b10000 7
b10000 >
b1100 +
b1100 1
1!
1(
#175
b0 M"
b0 X"
b0 D"
b0 L"
b0 H"
b0 ["
1Q"
b100000000100000 }"
b100000000100000 l
b100000000100000 8"
b100000000100000 ="
0`"
0h"
0c"
0i"
b10 g"
b10 p"
b1001 e"
b1001 R"
b1001 o"
b1010 ^"
b1010 9"
b1010 >"
b1010 j"
b1010 m"
b0 2"
b0 H
b0 E"
b0 0"
b0 T"
b1000 ."
b1000 S"
b0 6"
b0 B"
0("
0G"
b0 !"
b1000 w"
b1000 k
b1000 U"
b100000000100000 r"
b100000000100000 {"
0!
0(
#200
b10100 <
b10100 .
b10 T
b10 v
b0 U
b0 }
1^
1`
1\
0]
b10100 8
b10100 :
b10101101000010010000000000000100 B
b1001 1"
b1001 /"
b100 5"
b0 d"
b0 ]"
b0 a
b0 Q
b10 [
b10 P
b1101 |
b1101 {
b1101 o
b100011 V
b1101 J
b100011 K
b1000011010000000000000100 D
b10001101000011010000000000000100 )
b10001101000011010000000000000100 2
b10001101000011010000000000000100 ?
b10000 0
b10100 -
b10100 7
b10100 >
b10000 +
b10000 1
b1001 v"
b1010 q"
b10 y"
b100 #
b100 '
1!
1(
#225
b100 M"
b100 X"
b1010 @"
b1010 A"
b1010 Z"
b100 D"
b100 L"
b1 W"
b1 ?"
b1010 }"
b1010 l
b1010 8"
b1010 ="
b1001 2"
b1001 H
b1001 E"
b1001 0"
b1001 T"
b100 6"
b100 B"
b0 e"
b0 R"
b0 o"
b0 ^"
b0 9"
b0 >"
b0 j"
b0 m"
b1001 w"
b1001 k
b1001 U"
b1010 r"
b1010 {"
0t"
0|"
1x"
1q
0!
0(
#250
b11000 <
b11000 .
0t
03
b1 T
b1 v
b11 U
b11 }
0^
0\
1_
b10 W
0X
b11000 8
b11000 :
b1010 a"
b100 ]"
b10 $"
b0 3"
b1101 1"
b1101 /"
b1010 p
b1010 s
b1010 y
b1010 <"
b10001101000011010000000000000100 B
b11000 @
b11110000010000000 h
b11110000010000000 6
b11110000010000000 f
b11110000010000000 d
b11 a
b11 Q
b1 [
b1 P
b100000 O"
b1111 w
b1001 |
b1001 {
b1101 z
b1001 o
b1101 m
b111100000100000 i
b111100000100000 g
b111100000100000 j
b111100000100000 ~
b0 V
b1001 J
b1101 I
b0 K
b1101010010111100000100000 D
b1101010010111100000100000 )
b1101010010111100000100000 2
b1101010010111100000100000 ?
b101 #
b101 '
b0 v"
b0 q"
b10100 0
b11000 -
b11000 7
b11000 >
b10100 +
b10100 1
1!
1(
#275
b0 W"
b0 ?"
b0 }"
b0 l
b0 8"
b0 ="
b1010 b"
b1010 k"
b100 ^"
b100 9"
b100 >"
b100 j"
b100 m"
b10 %"
b10 Y"
b0 4"
b0 \"
b1101 2"
b1101 H
b1101 E"
b1101 0"
b1101 T"
b0 w"
b0 k
b0 U"
b0 r"
b0 {"
0!
0(
#300
b11100 <
b11100 .
b0 T
b0 v
b101 S
b101 u
b10 U
b10 }
b0 @"
b0 A"
b0 Z"
1t
13
0_
b0 W
1X
b11100 8
b11100 :
b1101010010111100000100000 B
b1 $"
b11 3"
b1111 &"
b1001 1"
b1001 /"
b1101 -"
b111100000100000 5"
b1010 +"
b10 _"
b0 f"
b1 N"
b110100 h
b110100 6
b110100 f
b110100 d
b10 a
b10 Q
b0 [
b0 P
b101 Y
b101 O
b1000000000000000000000000000000 F
b1000000000000000000000000000000 9
b1101 O"
b0 w
b1010 |
b1010 {
b0 z
b1010 o
b0 p
b0 s
b0 y
b0 <"
b0 m
b1101 i
b1101 g
b1101 j
b1101 ~
b1000 V
b1010 J
b0 I
b1000 K
b10100000000000001101 D
b100000000010100000000000001101 )
b100000000010100000000000001101 2
b100000000010100000000000001101 ?
b11000 0
b11100 -
b11100 7
b11100 >
b11000 +
b11000 1
b100 q"
b110 #
b110 '
1!
1(
#325
b111100000100000 M"
b111100000100000 X"
b1111 H"
b1111 ["
b111100000100000 D"
b111100000100000 L"
1G
0Q"
b100 }"
b100 l
b100 8"
b100 ="
b1 %"
b1 Y"
b11 4"
b11 \"
b1111 '"
b1111 F"
b1001 2"
b1001 H
b1001 E"
b1001 0"
b1001 T"
b1101 ."
b1101 S"
b111100000100000 6"
b111100000100000 B"
b1010 ,"
1c"
1i"
b0 g"
b0 p"
b100 r"
b100 {"
0!
0(
#350
b111100000101010 M"
b111100000101010 X"
b0 U
b0 }
b100000 <
b100000 .
b0 S
b0 u
b10 P"
b10 I"
b1010 @"
b1010 A"
b1010 Z"
b1010 ;"
b1010 K"
1_
b10 W
0X
0L
0R
1M
1=
1N
1/
b100000 8
b100000 :
b1 _"
b11 f"
b1111 d"
b0 a"
b111100000100000 ]"
b0 $"
b10 3"
b101 #"
b0 &"
b1010 1"
b1010 /"
b0 -"
b1101 5"
b0 +"
b100000000010100000000000001101 B
b100000 @
b0 N"
b10110000001100000 h
b10110000001100000 6
b10110000001100000 f
b10110000001100000 d
b1000 Y
b1000 O
b0 F
b0 9
b11000 O"
b1011 w
b1001 |
b1001 {
b1001 z
b1001 o
b1010 p
b1010 s
b1010 y
b1010 <"
b1001 m
b1010 n
b1010 r
b1010 x
b1010 7"
b101100000011000 i
b101100000011000 g
b101100000011000 j
b101100000011000 ~
b0 V
b1001 J
b1001 I
b0 K
b1001010010101100000011000 D
b1001010010101100000011000 )
b1001010010101100000011000 2
b1001010010101100000011000 ?
b111 #
b111 '
b0 y"
b11100 0
b100000 -
b100000 7
b100000 >
b11100 +
b11100 1
1!
1(
#375
b10 U
b10 }
b10111 M"
b10111 X"
1L
1R
0M
0=
0N
0/
b1101 D"
b1101 L"
b1010 H"
b1010 ["
1Q"
0G
1`"
1h"
0c"
0i"
b11 g"
b11 p"
b1111 e"
b1111 R"
b1111 o"
b0 b"
b0 k"
b111100000100000 ^"
b111100000100000 9"
b111100000100000 >"
b111100000100000 j"
b111100000100000 m"
b0 %"
b0 Y"
b10 4"
b10 \"
b0 '"
b0 F"
b1010 2"
b1010 H
b1010 E"
b1010 0"
b1010 T"
b0 ."
b0 S"
b1101 6"
b1101 B"
b0 ,"
1("
1G"
b10 !"
0x"
0q
0!
0(
#400
b10001 M"
b10001 X"
b11000000000000000000000000000000 <
b11000000000000000000000000000000 .
b101 S
b101 u
b100 @"
b100 A"
b100 Z"
b100 ;"
b100 K"
1c
1;
0`
b1 W
b100100 8
b100100 :
b1001010010101100000011000 B
b0 #"
b1011 &"
b1001 1"
b1001 /"
b1001 -"
b101100000011000 5"
b1010 +"
b1010 )"
b0 _"
b10 f"
b1010 d"
b1010 a"
b10111 ]"
b1 N"
b101100 h
b101100 6
b101100 f
b101100 d
b101 Y
b101 O
b11000000000000000000000000000000 F
b11000000000000000000000000000000 9
b1011 O"
b0 w
b0 |
b0 {
b0 z
b0 o
b100 p
b100 s
b100 y
b100 <"
b0 m
b100 n
b100 r
b100 x
b100 7"
b1011 i
b1011 g
b1011 j
b1011 ~
b10 V
b0 J
b0 I
b10 K
b1011 D
b1000000000000000000000001011 )
b1000000000000000000000001011 2
b1000000000000000000000001011 ?
b100000 0
b100100 -
b100100 7
b100100 >
b100000 +
b100000 1
b1111 v"
b111100000100000 q"
b11 y"
b1000 #
b1000 '
1!
1(
#425
b101100000011100 M"
b101100000011100 X"
b101100000011000 D"
b101100000011000 L"
b1011 H"
b1011 ["
bx }"
bx l
bx 8"
bx ="
b1011 '"
b1011 F"
b1001 2"
b1001 H
b1001 E"
b1001 0"
b1001 T"
b1001 ."
b1001 S"
b101100000011000 6"
b101100000011000 B"
b1010 ,"
b1010 *"
0("
0G"
b0 !"
0`"
0h"
b10 g"
b10 p"
b1010 e"
b1010 R"
b1010 o"
b1010 b"
b1010 k"
b10111 ^"
b10111 9"
b10111 >"
b10111 j"
b10111 m"
b1111 w"
b1111 k
b1111 U"
b111100000100000 r"
b111100000100000 {"
1t"
1|"
1x"
1q
0!
0(
#450
bx M"
bx X"
b1100 E
b11 S
b11 u
b0 U
b0 }
b0 <
b0 .
bx @"
bx A"
bx Z"
bx ;"
bx K"
xt
x3
b11000000000000000000000000000100 8
b11000000000000000000000000000100 :
b1011 d"
b100 a"
b101100000011100 ]"
b101 #"
b0 &"
b0 1"
b0 /"
b0 -"
b1011 5"
b100 +"
b100 )"
b1000000000000000000000001011 B
b11000000000000000000000000000100 @
b11 N"
b0xxxxxxxxxxxxxxxx00 h
bx 6
bx f
b0xxxxxxxxxxxxxxxx00 d
b0 a
b0 Q
b11 Y
b11 O
b0 F
b0 9
bx O"
bx w
bx |
bx {
bx z
bx o
bx p
bx s
bx y
bx <"
bx m
bx n
bx r
bx x
bx 7"
bx i
b0xxxxxxxxxxxxxxxx g
b0xxxxxxxxxxxxxxxx j
b0xxxxxxxxxxxxxxxx ~
bx V
bx J
bx I
bx K
bx D
bx )
bx 2
bx ?
b1001 #
b1010 v"
b10111 q"
b10 y"
b11000000000000000000000000000000 0
b11000000000000000000000000000100 -
b11000000000000000000000000000100 7
b11000000000000000000000000000100 >
b11000000000000000000000000000000 +
b11000000000000000000000000000000 1
1!
1(
#475
b1011 D"
b1011 L"
b0 H"
b0 ["
b10111 }"
b10111 l
b10111 8"
b10111 ="
b1011 e"
b1011 R"
b1011 o"
b100 b"
b100 k"
b101100000011100 ^"
b101100000011100 9"
b101100000011100 >"
b101100000011100 j"
b101100000011100 m"
b0 '"
b0 F"
b0 2"
b0 H
b0 E"
b0 0"
b0 T"
b0 ."
b0 S"
b1011 6"
b1011 B"
b100 ,"
b100 *"
1("
1G"
b10 !"
b1010 w"
b1010 k
b1010 U"
b10111 r"
b10111 {"
0t"
0|"
0!
0(
#500
b1111 M"
b1111 X"
b100 <
b100 .
b0 E
b100 @"
b100 A"
b100 Z"
b100 ;"
b100 K"
1t
13
0c
0;
1`
b10 W
b100 8
b100 :
bx B
b0 3"
b11 #"
bx &"
bx 1"
bx /"
bx -"
b0xxxxxxxxxxxxxxxx 5"
bx +"
bx )"
b0 d"
bx a"
bx ]"
b10000000010000000 h
b10000000010000000 6
b10000000010000000 f
b10000000010000000 d
b100000 O"
b1000 w
b0 |
b0 {
b0 z
b0 o
b100 p
b100 s
b100 y
b100 <"
b0 m
b100 n
b100 r
b100 x
b100 7"
b100000000100000 i
b100000000100000 g
b100000000100000 j
b100000000100000 ~
b0 V
b0 J
b0 I
b0 K
b100000000100000 D
b100000000100000 )
b100000000100000 2
b100000000100000 ?
b0 0
b100 -
b100 7
b100 >
b0 +
b0 1
b1011 v"
b101100000011100 q"
b1010 #
1!
1(
#525
bx M"
bx X"
bx H"
bx ["
b0xxxxxxxxxxxxxxxx D"
b0xxxxxxxxxxxxxxxx L"
b101100000011100 }"
b101100000011100 l
b101100000011100 8"
b101100000011100 ="
b0 4"
b0 \"
bx '"
bx F"
bx 2"
bx H
bx E"
bx 0"
bx T"
bx ."
bx S"
b0xxxxxxxxxxxxxxxx 6"
b0xxxxxxxxxxxxxxxx B"
bx ,"
bx *"
b1 !"
b0 e"
b0 R"
b0 o"
bx b"
bx k"
bx ^"
bx 9"
bx >"
bx j"
bx m"
b1011 w"
b1011 k
b1011 U"
b101100000011100 r"
b101100000011100 {"
0!
0(
#550
b1000 <
b1000 .
b101 S
b101 u
b10 U
b10 }
b1010 @"
b1010 A"
b1010 Z"
0t
03
0_
b0 W
1X
b1000 8
b1000 :
b0 f"
bx d"
b100 a"
b1000 &"
b0 1"
b0 /"
b0 -"
b100000000100000 5"
b100 +"
b100 )"
b100000000100000 B
b1000 @
b1 N"
b101000 h
b101000 6
b101000 f
b101000 d
b10 a
b10 Q
b101 Y
b101 O
b10000000000000000000000000000000 F
b10000000000000000000000000000000 9
b1010 O"
b0 w
b1001 |
b1001 {
b1001 o
b1010 p
b1010 s
b1010 y
b1010 <"
b1010 i
b1010 g
b1010 j
b1010 ~
b1000 V
b1001 J
b1000 K
b10010000000000001010 D
b100000000010010000000000001010 )
b100000000010010000000000001010 2
b100000000010010000000000001010 ?
b1011 #
b1001 '
b0 v"
bx q"
b100 0
b1000 -
b1000 7
b1000 >
b100 +
b100 1
1!
1(
#575
b100000000100100 M"
b100000000100100 X"
b0 H"
b0 ["
b100000000100000 D"
b100000000100000 L"
0Q"
bx }"
bx l
bx 8"
bx ="
b0 g"
b0 p"
bx e"
bx R"
bx o"
b100 b"
b100 k"
b1000 '"
b1000 F"
b0 2"
b0 H
b0 E"
b0 0"
b0 T"
b0 ."
b0 S"
b100000000100000 6"
b100000000100000 B"
b100 ,"
b100 *"
b0 w"
b0 k
b0 U"
bx r"
bx {"
0!
0(
#600
b100000000100000 M"
b100000000100000 X"
b1100 <
b1100 .
xt
x3
b0 S
b0 u
bx @"
bx A"
bx Z"
b0 ;"
b0 K"
0`
1]
b1100 8
b1100 :
b100000000010010000000000001010 B
b10 3"
b101 #"
b0 &"
b1001 1"
b1001 /"
b1010 5"
b1010 +"
b0 d"
b1010 a"
b100000000100100 ]"
b0 N"
b0 h
b0 6
b0 f
b0 d
b1000 Y
b1000 O
b0 F
b0 9
b0 O"
b0 |
b0 {
b1000 z
b0 o
bx p
bx s
bx y
bx <"
b1000 m
b0 n
b0 r
b0 x
b0 7"
b0 i
b0 g
b0 j
b0 ~
b101011 V
b0 J
b1000 I
b101011 K
b1000000000000000000000000 D
b10101101000000000000000000000000 )
b10101101000000000000000000000000 2
b10101101000000000000000000000000 ?
b1000 0
b1100 -
b1100 7
b1100 >
b1000 +
b1000 1
b0xxxxx v"
b0 y"
b1100 #
b1010 '
1!
1(
#625
b1010 M"
b1010 X"
b1001 H"
b1001 ["
b1010 D"
b1010 L"
b10 4"
b10 \"
b0 '"
b0 F"
b1001 2"
b1001 H
b1001 E"
b1001 0"
b1001 T"
b1010 6"
b1010 B"
b1010 ,"
b10 !"
b0 e"
b0 R"
b0 o"
b1010 b"
b1010 k"
b100000000100100 ^"
b100000000100100 9"
b100000000100100 >"
b100000000100100 j"
b100000000100100 m"
bx w"
bx k
bx U"
0x"
0q
0!
0(
#650
b10000 <
b10000 .
b1010 @"
b1010 A"
b1010 Z"
0t
03
b10000 8
b10000 :
b10 f"
b1001 d"
bx a"
b1010 ]"
b0 #"
b0 1"
b0 /"
b1000 -"
b0 5"
bx +"
b0 )"
b10101101000000000000000000000000 B
b10000 @
b10000 h
b10000 6
b10000 f
b10000 d
b100 O"
b1001 |
b1001 {
b1001 o
b1010 p
b1010 s
b1010 y
b1010 <"
b100 i
b100 g
b100 j
b100 ~
b1001 J
b1000010010000000000000100 D
b10101101000010010000000000000100 )
b10101101000010010000000000000100 2
b10101101000010010000000000000100 ?
b1101 #
b1011 '
b0 v"
b100000000100100 q"
b1100 0
b10000 -
b10000 7
b10000 >
b1100 +
b1100 1
1!
1(
